Epidemiology of Co-Colonized Methicillin Resistant Staphylococcus aureus Associated ABSSSI
…
  anaerobic gram_neg gram_pos fungal
0       677      548      521    650
1        11      140      167     38

tab <- main %>%
  filter(poly_infx == 1 & infx_type != '') %>%
  select(infx_type, site1) %>%
  group_by(site1, infx_type) %>%
  summarise(count = n()) %>%
  ungroup() %>%
  mutate(percent = count / sum(count) * 100)

tab

# A tibble: 59 x 4
            site1                    infx_type count   percent
            <chr>                        <chr> <int>     <dbl>
 1        Abdomen     Anaerobic, Gram Negative     2 0.8097166
 2        Abdomen     Anaerobic, Gram Positive     1 0.4048583
 3        Abdomen                Gram Negative     3 1.2145749
 4        Abdomen        Gram Negative, Fungal     1 0.4048583
 5        Abdomen Gram Negative, Gram Positive     2 0.8097166
 6        Abdomen                Gram Positive    13 5.2631579
 7        Abdomen        Gram Positive, Fungal     2 0.8097166
 8 Back and Sides                    Anaerobic     1 0.4048583
 9 Back and Sides                Gram Negative     4 1.6194332
10 Back and Sides Gram Negative, Gram Positive     6 2.4291498
# ... with 49 more rows
…
co_colony.df <- main %>%
  filter(poly_infx == 1) %>%
  select(id, site1, abau:citro, unidentified, infx_type, cssti, diabetes)

co_colony.df %>%
  select(-id, -infx_type, -unidentified, -coryne, -cssti, -diabetes) %>%
  reshape2::melt(id.vars = "site1") %>%
  plyr::ddply(plyr::.(site1, variable),
              summarise,
              sum = sum(value)) %>%
  group_by(site1) %>%
  mutate(max = max(sum)) %>%
  filter(sum == max)

# A tibble: 23 x 4
# Groups:   site1 [14]
            site1 variable   sum   max
            <chr>   <fctr> <dbl> <dbl>
 1        Abdomen    strep     4     4
 2        Abdomen     aeru     4     4
 3 Back and Sides     abau     3     3
 4 Back and Sides     aeru     3     3
 5          Blood   aureus     1     1
 6          Blood  faecium     1     1
 7          Blood faecalis     1     1
 8          Blood    staph     1     1
 9        Buttock     aeru    11    11
10           Foot faecalis    11    11
# ... with 13 more rows
…
